{
  "shell_port": 37381,
  "iopub_port": 43677,
  "stdin_port": 44399,
  "control_port": 36989,
  "hb_port": 41403,
  "ip": "127.0.0.1",
  "key": "b793cb85-9e3ac7861e0f5a7ecd822448",
  "transport": "tcp",
  "signature_scheme": "hmac-sha256",
  "kernel_name": ""
}